-------------------------------------------------------------------------------
Test set: ar.com.smg.smmp.autorizaciones.persistence.dao.AuditoriaDaoTest
-------------------------------------------------------------------------------
Tests run: 1, Failures: 0, Errors: 0, Skipped: 0, Time elapsed: 0.474 sec
