20140401,20140614,99785,,,75,1,,
20140401,20140614,99785,,,75,2,,
20140401,20140614,99785,,,75,3,,
20140401,20140614,99785,,,75,4,,
20140401,20140614,99785,,,75,5,,
20140408,20140614,99785,,,75,,,
20140415,20140628,99785,,,75,,,
20140422,20140705,99785,,,75,,,
20140401,20140614,1763,,,75,,,
20140408,20140621,1763,,,75,,,
20140415,20140628,1763,,,75,,,
20140422,20140705,1763,,,75,,,
20140401,20140614,1212,,,75,1,,
20140408,20140621,1212,,,75,,,
20140415,20140628,1212,,,75,,,
20140422,20140705,1212,,,75,,,
20140401,20140614,1130,,,75,,,
20140408,20140621,1130,,,75,2,,
20140801,20141014,99785,,,75,,,
20140808,20141021,99785,,,75,3,,
20150522,20150804,99785,,,75,,,
20150901,20151114,99785,,,75,,,
20150908,20151121,99785,,,75,,,
20150301,20150514,82387,,,75,2,,
20150308,20150521,82387,,,75,,,
20150401,20150614,1130,,,75,3,,
20150408,20150621,1130,,,75,,,
20150415,20150628,1130,,,75,,,
20141101,20150114,99785,,,75,,,
20141101,20150114,1632,,,75,1,,
20141101,20150114,82387,,,75,,,
20141101,20150114,1130,,,75,,,
20141101,20150114,1763,,,75,,,
20141101,20150114,120893,,,75,,,
20141101,20150114,55060,,,75,2,,
20141101,20150114,26108,,,75,2,,
20141101,20150114,1127,,,75,,,
20141101,20150114,50162,,,75,,,
20141101,20150114,120893,,,75,1,,
20141101,20150114,2086,,,75,,,