20130601,20140607,99785,,,372,1,,
20130601,20140607,99785,,,372,2,,
20130601,20140607,99785,,,372,3,,
20130601,20140607,99785,,,372,4,,
20130601,20140607,99785,,,372,5,,
20130608,20140614,99785,,,372,,,
20130615,20140621,99785,,,372,,,
20130622,20140628,99785,,,372,,,
20130601,20140607,1763,,,372,,,
20130608,20140614,1763,,,372,,,
20130615,20140621,1763,,,372,,,
20130622,20140628,1763,,,372,,,
20130601,20140607,1212,,,372,1,,
20130608,20140614,1212,,,372,,,
20130615,20140621,1212,,,372,,,
20130622,20140628,1212,,,372,,,
20130601,20140607,1130,,,372,,,
20130608,20140614,1130,,,372,2,,
20131001,20141007,99785,,,372,,,
20131008,20141014,99785,,,372,3,,
20140722,20150728,99785,,,372,,,
20141101,20151107,99785,,,372,,,
20141108,20151114,99785,,,372,,,
20140501,20150507,82387,,,372,2,,
20140508,20150514,82387,,,372,,,
20140601,20150607,1130,,,372,3,,
20140608,20150614,1130,,,372,,,
20140615,20150621,1130,,,372,,,
20140101,20150107,99785,,,372,,,
20140101,20150106,1632,,,372,1,,
20140101,20150106,82387,,,372,,,
20140101,20150106,1130,,,372,,,
20140101,20150106,1763,,,372,,,
20140101,20150106,120893,,,372,,,
20140101,20150106,55060,,,372,2,,
20140101,20150106,26108,,,372,2,,
20140101,20150106,1127,,,372,,,
20140101,20150106,50162,,,372,,,
20140101,20150106,120893,,,372,1,,
20140101,20150106,2086,,,372,,,